<svg id="external-1" xmlns="http://www.w3.org/2000/svg" height="400" width="500">
<line id="linha-1" x1="250" y1="0" x2="250" y2="300" stroke="black" stroke-width="3" />
<circle id="circulo-1" cx="250" cy="300" r="25" stroke="black" stroke-width="3" fill="red" />
</svg> 